先日	名詞,副詞可能,*,*,*,*,先日,センジツ,センジツ,67
の	助詞,連体化,*,*,*,*,の,ノ,ノ,24
歓迎	名詞,サ変接続,*,*,*,*,歓迎,カンゲイ,カンゲイ,36
会	名詞,接尾,一般,*,*,*,会,カイ,カイ,51
は	助詞,係助詞,*,*,*,*,は,ハ,ワ,16
アルバイト	名詞,サ変接続,*,*,*,*,アルバイト,アルバイト,アルバイト,36
で	助詞,格助詞,一般,*,*,*,で,デ,デ,13
参加	名詞,サ変接続,*,*,*,*,参加,サンカ,サンカ,36
でき	動詞,自立,*,*,一段,未然形,できる,デキ,デキ,31
なかっ	助動詞,*,*,*,特殊・ナイ,連用タ接続,ない,ナカッ,ナカッ,25
た	助動詞,*,*,*,特殊・タ,基本形,た,タ,タ,25
。	記号,句点,*,*,*,*,。,。,。,7
EOS
