* 0 5D 1/2 -2.082808
太郎	名詞,固有名詞,人名,名,*,*,太郎,タロウ,タロー
君	名詞,接尾,人名,*,*,*,君,クン,クン
は	助詞,係助詞,*,*,*,*,は,ハ,ワ
* 1 2D 0/1 2.343838
橋	名詞,一般,*,*,*,*,橋,ハシ,ハシ
の	助詞,連体化,*,*,*,*,の,ノ,ノ
* 2 3D 0/1 1.919417
上	名詞,非自立,副詞可能,*,*,*,上,ウエ,ウエ
で	助詞,格助詞,一般,*,*,*,で,デ,デ
* 3 4D 0/2 1.433349
泳い	動詞,自立,*,*,五段・ガ行,連用タ接続,泳ぐ,オヨイ,オヨイ
で	助詞,接続助詞,*,*,*,*,で,デ,デ
いる	動詞,非自立,*,*,一段,基本形,いる,イル,イル
* 4 5D 1/2 -2.082808
花子	名詞,固有名詞,人名,名,*,*,花子,ハナコ,ハナコ
さん	名詞,接尾,人名,*,*,*,さん,サン,サン
を	助詞,格助詞,一般,*,*,*,を,ヲ,ヲ
* 5 -1D 0/1 0.000000
見つけ	動詞,自立,*,*,一段,連用形,見つける,ミツケ,ミツケ
た	助動詞,*,*,*,特殊・タ,基本形,た,タ,タ
。	記号,句点,*,*,*,*,。,。,。
EOS
